<?xml version="1.0" encoding="UTF-8"?>
<session version="1.0">
<refactoring comment="Extract method &apos;public static void menuDriven(LinkedList l1)&apos; from &apos;assi3_1.main(...)&apos; to &apos;assi3_1&apos;&#x0D;&#x0A;- Original project: &apos;assi3_1&apos;&#x0D;&#x0A;- Method name: &apos;menuDriven&apos;&#x0D;&#x0A;- Destination type: &apos;assi3_1&apos;&#x0D;&#x0A;- Declared visibility: &apos;public&apos;" comments="false" description="Extract method &apos;menuDriven&apos;" destination="0" exceptions="false" flags="786434" id="org.eclipse.jdt.ui.extract.method" input="/src&lt;{assi3_1.java" name="menuDriven" replace="false" selection="195 2154" stamp="1651580350866" version="1.0" visibility="1"/>
</session>