<?xml version="1.0" encoding="UTF-8"?>
<session version="1.0">
<refactoring comment="Copy 4 packages to &apos;day5.1_prac/src/main/java&apos;&#x0D;&#x0A;- Original project: &apos;day3.1prac&apos;&#x0D;&#x0A;- Destination element: &apos;day5.1_prac/src/main/java&apos;&#x0D;&#x0A;- Original elements:&#x0D;&#x0A;     day3.1prac/src/pojos&#x0D;&#x0A;     day3.1prac/src/tester&#x0D;&#x0A;     day3.1prac/src/dao&#x0D;&#x0A;     day3.1prac/src/utils" description="Copy packages" destination="=day5.1_prac/src\/main\/java" element1="/src&lt;pojos" element2="/src&lt;tester" element3="/src&lt;dao" element4="/src&lt;utils" flags="589830" fragments="4" id="org.eclipse.jdt.ui.copy" policy="org.eclipse.jdt.ui.copyPackages" stamp="1659183934830" version="1.0"/>
</session>